…
zip_count|>
  filter(zip_obs == 116)
```

    ## # A tibble: 48 × 2
    ##    zip_code zip_obs
    ##       <dbl>   <int>
    ##  1    10001     116
    ##  2    10002     116
    ##  3    10003     116
    ##  4    10005     116
    ##  5    10010     116
    ##  6    10012     116
    ##  7    10013     116
    ##  8    10014     116
    ##  9    10017     116
    ## 10    10018     116
    ## # ℹ 38 more rows

``` r
zip_count |>
  filter(zip_obs < 10)
```

    ## # A tibble: 26 × 2
    ##    zip_code zip_obs
    ##       <dbl>   <int>
    ##  1    10044       9
    ##  2    10162       2
    ##  3    10303       2
    ##  4    10308       3
    ##  5    10453       1
    ##  6    10455       3
    ##  7    10456       4
    ##  8    10459       2
    ##  9    10460       2
    ## 10    10470       1
    ## # ℹ 16 more rows
…
